"response": {
    "status": "ok",
    "userTier": "developer",
    "total": 166046,
    "startIndex": 11,
    "pageSize": 10,
    "currentPage": 2,
    "pages": 16605,
    "orderBy": "relevance",
    "results": [
        {
            "id": "us-news/2023/oct/24/republican-debate-livestream-rumble-misogyny-extremism",
            "type": "article",
            "sectionId": "us-news",
            "sectionName": "US news",
            "webPublicationDate": "2023-10-24T11:00:34Z",
            "webTitle": "Revealed: Republican debate broadcast partner fueled by misogyny and extremism",
            "webUrl": "https://www.theguardian.com/us-news/2023/oct/24/republican-debate-livestream-rumble-misogyny-extremism",
            "apiUrl": "https://content.guardianapis.com/us-news/2023/oct/24/republican-debate-livestream-rumble-misogyny-extremism",
            "isHosted": false,
            "pillarId": "pillar/news",
            "pillarName": "News"
        },
        {
            "id": "australia-news/2023/nov/15/peter-dutton-accused-weaponising-antisemitism-debate-parliament-immigration-detention-israel-hamas-war-gaza",
            "type": "article",
            "sectionId": "australia-news",
            "sectionName": "Australia news",
            "webPublicationDate": "2023-11-15T07:19:09Z",
            "webTitle": "Peter Dutton accused of ‘weaponising antisemitism’ during fiery debate in parliament",
            "webUrl": "https://www.theguardian.com/australia-news/2023/nov/15/peter-dutton-accused-weaponising-antisemitism-debate-parliament-immigration-detention-israel-hamas-war-gaza",
            "apiUrl": "https://content.guardianapis.com/australia-news/2023/nov/15/peter-dutton-accused-weaponising-antisemitism-debate-parliament-immigration-detention-israel-hamas-war-gaza",
            "isHosted": false,
            "pillarId": "pillar/news",
            "pillarName": "News"
        },
        {
            "id": "australia-news/live/2023/sep/07/australia-politics-live-qantas-catherine-king-aviation-policy-qatar-anthony-albanese-jakarta-li-qiang-question-time-peter-dutton-richard-marles",
            "type": "liveblog",
            "sectionId": "australia-news",
            "sectionName": "Australia news",
            "webPublicationDate": "2023-09-07T08:32:46Z",
            "webTitle": "MP criticises question time debate – as it happened",
            "webUrl": "https://www.theguardian.com/australia-news/live/2023/sep/07/australia-politics-live-qantas-catherine-king-aviation-policy-qatar-anthony-albanese-jakarta-li-qiang-question-time-peter-dutton-richard-marles",
            "apiUrl": "https://content.guardianapis.com/australia-news/live/2023/sep/07/australia-politics-live-qantas-catherine-king-aviation-policy-qatar-anthony-albanese-jakarta-li-qiang-question-time-peter-dutton-richard-marles",
            "isHosted": false,
            "pillarId": "pillar/news",
            "pillarName": "News"
        },
        {
            "id": "commentisfree/2023/dec/06/the-15-questions-that-will-not-be-asked-at-the-republican-debate",
            "type": "article",
            "sectionId": "commentisfree",
            "sectionName": "Opinion",
            "webPublicationDate": "2023-12-06T11:09:08Z",
            "webTitle": "The 15 questions that will not be asked at the Republican debate | Sidney Blumenthal",
            "webUrl": "https://www.theguardian.com/commentisfree/2023/dec/06/the-15-questions-that-will-not-be-asked-at-the-republican-debate",
            "apiUrl": "https://content.guardianapis.com/commentisfree/2023/dec/06/the-15-questions-that-will-not-be-asked-at-the-republican-debate",
            "isHosted": false,
            "pillarId": "pillar/opinion",
            "pillarName": "Opinion"
        },
        {
            "id": "film/2023/nov/13/netflixs-movie-hurricane-season-stirs-debate-over-violent-depiction-of-mexico",
            "type": "article",
            "sectionId": "film",
            "sectionName": "Film",
            "webPublicationDate": "2023-11-13T11:30:24Z",
            "webTitle": "Netflix’s movie Hurricane Season stirs debate over violent depiction of Mexico",
            "webUrl": "https://www.theguardian.com/film/2023/nov/13/netflixs-movie-hurricane-season-stirs-debate-over-violent-depiction-of-mexico",
            "apiUrl": "https://content.guardianapis.com/film/2023/nov/13/netflixs-movie-hurricane-season-stirs-debate-over-violent-depiction-of-mexico",
            "isHosted": false,
            "pillarId": "pillar/arts",
            "pillarName": "Arts"
        },
        {
            "id": "us-news/2023/nov/30/ron-desantis-gavin-newsom-debate",
            "type": "article",
            "sectionId": "us-news",
            "sectionName": "US news",
            "webPublicationDate": "2023-12-01T04:32:44Z",
            "webTitle": "DeSantis v Newsom debate: governors clash on crime, abortion, guns and more",
            "webUrl": "https://www.theguardian.com/us-news/2023/nov/30/ron-desantis-gavin-newsom-debate",
            "apiUrl": "https://content.guardianapis.com/us-news/2023/nov/30/ron-desantis-gavin-newsom-debate",
            "isHosted": false,
            "pillarId": "pillar/news",
            "pillarName": "News"
        },
        {
            "id": "commentisfree/2023/dec/01/ron-desantis-gavin-newsom-debate",
            "type": "article",
            "sectionId": "commentisfree",
            "sectionName": "Opinion",
            "webPublicationDate": "2023-12-01T16:38:42Z",
            "webTitle": "His debate with Gavin Newsom showed Ron DeSantis will never be president | Lloyd Green",
            "webUrl": "https://www.theguardian.com/commentisfree/2023/dec/01/ron-desantis-gavin-newsom-debate",
            "apiUrl": "https://content.guardianapis.com/commentisfree/2023/dec/01/ron-desantis-gavin-newsom-debate",
            "isHosted": false,
            "pillarId": "pillar/opinion",
            "pillarName": "Opinion"
        },
        {
            "id": "commentisfree/2023/dec/07/the-republican-debate-was-another-grim-exercise-in-futility-and-attention-seeking",
            "type": "article",
            "sectionId": "commentisfree",
            "sectionName": "Opinion",
            "webPublicationDate": "2023-12-07T15:20:35Z",
            "webTitle": "The Republican debate was another grim exercise in futility and attention-seeking | Lloyd Green",
            "webUrl": "https://www.theguardian.com/commentisfree/2023/dec/07/the-republican-debate-was-another-grim-exercise-in-futility-and-attention-seeking",
            "apiUrl": "https://content.guardianapis.com/commentisfree/2023/dec/07/the-republican-debate-was-another-grim-exercise-in-futility-and-attention-seeking",
            "isHosted": false,
            "pillarId": "pillar/opinion",
            "pillarName": "Opinion"
        },
        {
            "id": "us-news/2023/nov/08/republican-debate-miami-ron-desantis-nikki-haley",
            "type": "article",
            "sectionId": "us-news",
            "sectionName": "US news",
            "webPublicationDate": "2023-11-09T05:26:27Z",
            "webTitle": "Support for Israel and verbal sparring propel fiery third Republican debate",
            "webUrl": "https://www.theguardian.com/us-news/2023/nov/08/republican-debate-miami-ron-desantis-nikki-haley",
            "apiUrl": "https://content.guardianapis.com/us-news/2023/nov/08/republican-debate-miami-ron-desantis-nikki-haley",
            "isHosted": false,
            "pillarId": "pillar/news",
            "pillarName": "News"
        },
        {
            "id": "us-news/2023/nov/08/israeli-diplomat-bard-college-apartheid-debate",
            "type": "article",
            "sectionId": "us-news",
            "sectionName": "US news",
            "webPublicationDate": "2023-11-08T19:20:46Z",
            "webTitle": "Israeli diplomat pressured US college to drop course on ‘apartheid’ debate",
            "webUrl": "https://www.theguardian.com/us-news/2023/nov/08/israeli-diplomat-bard-college-apartheid-debate",
            "apiUrl": "https://content.guardianapis.com/us-news/2023/nov/08/israeli-diplomat-bard-college-apartheid-debate",
            "isHosted": false,
            "pillarId": "pillar/news",
            "pillarName": "News"
        }
    ]
}
}